{
    "version": 4,
    "id": 1621283965382,
    "autoColormaps": false,
    "colormap": "Map02",
    "autoImages": false,
    "image": "00-lebiniou.png",
    "plugins": [
        {
            "lens": false,
            "name": "critters",
            "displayName": "Critters",
            "version": 0,
            "mode": "overlay"
        },
        {
            "lens": false,
            "name": "roller_x",
            "displayName": "Roll X",
            "version": 1,
            "mode": "average",
            "parameters": {
                "direction": {
                    "value": "Random"
                },
                "random_speed": {
                    "value": false
                },
                "speed": {
                    "value": 0.057771416217262964
                }
            }
        },
        {
            "lens": false,
            "name": "blur_diagonal_1",
            "displayName": "Blur diagonal \\",
            "version": 0,
            "mode": "normal",
            "parameters": {
                "border_mode": {
                    "value": "Toroidal"
                }
            }
        }
    ],
    "params3d": {
        "rotateAmount": 0.001,
        "rotateFactor": [
            0,
            0,
            0
        ],
        "rotations": [
            0.0,
            0.0,
            0.0
        ],
        "scaleFactorCoeff": 1,
        "boundary": "none"
    },
    "bandpassMin": 10,
    "bandpassMax": 245
}