{
    "version": 4,
    "id": 1621809998203,
    "autoColormaps": false,
    "colormap": "Jacco172",
    "autoImages": false,
    "image": "M_Babylone.png",
    "plugins": [
        {
            "lens": false,
            "name": "path_oscillo",
            "displayName": "Path oscillo",
            "version": 0,
            "mode": "overlay",
            "parameters": {
                "path": {
                    "value": "lebiniou"
                },
                "color_factor": {
                    "value": 2.0
                },
                "scale": {
                    "value": 1.0
                },
                "volume_scale": {
                    "value": 1.0
                },
                "length": {
                    "value": 50
                },
                "oscillo_length_factor": {
                    "value": 1
                },
                "windowing_factor": {
                    "value": 0.20000000000000001
                }
            }
        },
        {
            "lens": false,
            "name": "blur_vertical",
            "displayName": "Blur vertical",
            "version": 0,
            "mode": "normal",
            "parameters": {
                "border_mode": {
                    "value": "Toroidal"
                }
            }
        },
        {
            "lens": false,
            "name": "snake",
            "displayName": "Snake",
            "version": 0,
            "mode": "overlay",
            "parameters": {
                "mode": {
                    "value": 1
                },
                "length_min": {
                    "value": 0.01
                },
                "length_max": {
                    "value": 0.080000000000000002
                },
                "spectrum_id_factor": {
                    "value": 2.0
                },
                "color_factor": {
                    "value": 3.0
                }
            }
        },
        {
            "lens": true,
            "name": "warp",
            "displayName": "Warp",
            "version": 0,
            "mode": "normal"
        }
    ],
    "params3d": {
        "rotateAmount": 0.001,
        "rotateFactor": [
            0,
            0,
            0
        ],
        "rotations": [
            0.0,
            0.0,
            0.0
        ],
        "scaleFactorCoeff": 1,
        "boundary": "none"
    },
    "bandpassMin": 10,
    "bandpassMax": 245
}