{
    "version": 4,
    "id": 1622195397552,
    "autoColormaps": false,
    "colormap": "Jacco260",
    "autoImages": false,
    "image": "RTFM.png",
    "plugins": [
        {
            "lens": false,
            "name": "spectrum",
            "displayName": "Spectrum",
            "version": 0,
            "mode": "overlay",
            "parameters": {
                "volume_scale": {
                    "value": 1.0
                }
            }
        },
        {
            "lens": false,
            "name": "space_out",
            "displayName": "Space out",
            "version": 0,
            "mode": "normal",
            "parameters": {
                "speed_factor": {
                    "value": 1.0
                }
            }
        },
        {
            "lens": false,
            "name": "snake_oscillo",
            "displayName": "Snake oscillo",
            "version": 0,
            "mode": "overlay",
            "parameters": {
                "volume_scale": {
                    "value": 1.0
                },
                "mode": {
                    "value": 1
                },
                "length_min": {
                    "value": 0.01
                },
                "length_max": {
                    "value": 0.080000000000000002
                },
                "spectrum_id_factor": {
                    "value": 2.0
                },
                "color_factor": {
                    "value": 3.0
                }
            }
        },
        {
            "lens": false,
            "name": "blur_gaussian",
            "displayName": "Blur gaussian",
            "version": 0,
            "mode": "normal"
        }
    ],
    "params3d": {
        "rotateAmount": 0.001,
        "rotateFactor": [
            0,
            0,
            0
        ],
        "rotations": [
            0.0,
            0.0,
            0.0
        ],
        "scaleFactorCoeff": 1,
        "boundary": "none"
    },
    "bandpassMin": 10,
    "bandpassMax": 245
}