{
    "version": 4,
    "id": 1621691568788,
    "autoColormaps": false,
    "colormap": "Jacks65",
    "autoImages": false,
    "image": "MALE.png",
    "plugins": [
        {
            "lens": false,
            "name": "blur_diagonal_2",
            "displayName": "Blur diagonal /",
            "version": 0,
            "mode": "normal",
            "parameters": {
                "border_mode": {
                    "value": "Toroidal"
                }
            }
        },
        {
            "lens": false,
            "name": "scanline_x",
            "displayName": "Scanline X",
            "version": 0,
            "mode": "normal",
            "parameters": {
                "direction": {
                    "value": "Rightwards"
                },
                "thickness": {
                    "value": 1
                }
            }
        },
        {
            "lens": false,
            "name": "tv_nervous",
            "displayName": "TV nervous",
            "version": 0,
            "mode": "overlay",
            "parameters": {
                "use_video": {
                    "value": false
                }
            }
        },
        {
            "lens": false,
            "name": "sin_oscillo_2",
            "displayName": "Sin oscillo 2",
            "version": 0,
            "mode": "overlay",
            "parameters": {
                "volume_scale": {
                    "value": 1.0
                }
            }
        }
    ],
    "params3d": {
        "rotateAmount": 0.001,
        "rotateFactor": [
            0,
            0,
            0
        ],
        "rotations": [
            0.0,
            0.0,
            0.0
        ],
        "scaleFactorCoeff": 1,
        "boundary": "none"
    },
    "bandpassMin": 10,
    "bandpassMax": 245
}