{
    "version": 4,
    "id": 1621809183948,
    "autoColormaps": false,
    "colormap": "Rain4x3",
    "autoImages": false,
    "image": "gnu-head-sm.png",
    "plugins": [
        {
            "lens": false,
            "name": "splash",
            "displayName": "Splash",
            "version": 0,
            "mode": "normal"
        },
        {
            "lens": false,
            "name": "path_freq",
            "displayName": "Path freq",
            "version": 0,
            "mode": "overlay",
            "parameters": {
                "path": {
                    "value": "lebiniou"
                },
                "color_factor": {
                    "value": 2.0
                },
                "scale": {
                    "value": 1.0
                },
                "radius_factor": {
                    "value": 1.0
                },
                "length_min": {
                    "value": 0.01
                },
                "length_max": {
                    "value": 0.14999999999999999
                },
                "spectrum_id_factor": {
                    "value": 6.0
                },
                "speed": {
                    "value": 1.0
                }
            }
        },
        {
            "lens": false,
            "name": "blur_light",
            "displayName": "Blur light",
            "version": 0,
            "mode": "normal",
            "parameters": {
                "border_mode": {
                    "value": "Toroidal"
                }
            }
        },
        {
            "lens": false,
            "name": "spiral_effect",
            "displayName": "Spiral",
            "version": 0,
            "mode": "normal",
            "parameters": {
                "p_factor": {
                    "value": 1.0
                }
            }
        }
    ],
    "params3d": {
        "rotateAmount": 0.001,
        "rotateFactor": [
            0,
            0,
            0
        ],
        "rotations": [
            0.0,
            0.0,
            0.0
        ],
        "scaleFactorCoeff": 1,
        "boundary": "none"
    },
    "bandpassMin": 10,
    "bandpassMax": 245
}